{
    "sourceMap": {
        "sourceMapBuild": true,
        "markupIncludePath": "blocks",
        "addBefore": "global/header/header",
        "addAfter": "global/footer/footer"
    },

    "path": {
        "markup": "./../markup",
        "markupInclude": "pages",
        "destination": {
            "scripts": "./../../tmp/js",
            "styles": "./../../tmp/css",
            "vendor": "./../../tmp/vndr"
        }
    },

    "vendor": {
        "scripts": {
            "urijs": {
                "path": "bower_components/uri.js/src/URI.min.js"
            },
            "fancybox": {
                "path": "bower_components/fancybox/source/jquery.fancybox.pack.js"
            }
        },
        "styles": {
            "fancybox": {
                "path": "bower_components/fancybox/source/jquery.fancybox.css",
                "adjustParam": {"prependRelative": "../vendor/fancybox/"}
            }
        },
        "files": {
            "fancybox": {
                "src": "bower_components/fancybox/source/fancybox_sprite.png",
                "dest": "fancybox"
            }
        }
    }
}
